{
  "comment" : "task position updated",
  "files" : [
    {
      "content_type" : "text\/plain; charset=utf-8",
      "created_at" : "2018-05-19T07:50:30.727Z",
      "created_by_request_id" : "498d3ffc44ddfa2f275b:af05db92-e99a-47c0-bb9b-7ba89a0f12f3:133a8dca-3019-4f11-bb5e-ea2e-0bbda505:41027896:lwa585ea6c3f00c50901246364afa7a5",
      "file_name" : "test_file.txt",
      "file_size" : 11,
      "id" : 42266102,
      "local_created_at" : "2018-05-19T07:50:28.000Z",
      "revision" : 14,
      "task_id" : 3858184298,
      "type" : "file",
      "updated_at" : "2019-05-22T12:02:11.676Z",
      "url" : "https:\/\/download.wunderlist.io\/39009e20-3d67-0136-d4d3-22000a5bc116-1526716228-964346?AWSAccessKeyId=AKIAJEN6W4AO3LJODOAA&Expires=1561204931&Signature=IbUy8%2F1wsuiUhlOLZul79VLsIII%3D",
      "user_id" : 41027896
    },
    {
      "content_type" : "audio\/wav",
      "created_at" : "2018-07-14T11:18:06.346Z",
      "created_by_request_id" : "498d3ffc44ddfa2f275b:820a1dfa-a6b8-46b9-8be4-df31d3430874:f58889b4-a738-4a25-828f-ddc8-c6ac91d1:41027896:lw05b48e8b13f9ed42394d2c2f14b7fc",
      "file_name" : "recording-20180714-15:18:03.wav",
      "file_size" : 2244652,
      "id" : 44955478,
      "local_created_at" : "2018-07-14T11:18:03.000Z",
      "revision" : 12,
      "task_id" : 3917606699,
      "type" : "file",
      "updated_at" : "2019-05-20T22:08:37.958Z",
      "url" : "https:\/\/download.wunderlist.io\/7ff1c7d0-6985-0136-2c64-22000b0be443-1531567084-49482?AWSAccessKeyId=AKIAJEN6W4AO3LJODOAA&Expires=1561068517&Signature=A%2Fe9HC38gDBqTmeDT4SZX3KLCJc%3D",
      "user_id" : 41027896
    },
    {
      "content_type" : "application\/octet-stream",
      "created_at" : "2018-07-14T11:48:42.936Z",
      "created_by_request_id" : "498d3ffc44ddfa2f275b:820a1dfa-a6b8-46b9-8be4-df31d3430874:f036df09-bf45-4752-8f92-a072-5b09be7f:41027896:lw6e594085273b5a1e5345c219c6df74",
      "file_icon" : "https:\/\/www.dropbox.com\/static\/images\/icons64\/page_white_acrobat.png",
      "file_name" : "markdown-cheatsheet.pdf",
      "file_provider" : "dropbox",
      "file_size" : 1091846,
      "id" : 44956132,
      "local_created_at" : "2018-07-14T11:48:41.000Z",
      "revision" : 1,
      "task_id" : 3917606699,
      "type" : "file",
      "updated_at" : "2018-07-14T11:48:42.936Z",
      "url" : "https:\/\/www.dropbox.com\/s\/4qccw4tuj0jqpso\/markdown-cheatsheet.pdf?dl=0",
      "user_id" : 41027896
    }
  ],
  "folders" : [
    {
      "created_at" : "2019-06-13T09:59:06.704Z",
      "created_by_id" : 41027896,
      "created_by_request_id" : "3662fd0097daf4f3bc3d:3bd34e2e-7a39-5939-a429-5070d27920cd:e4844207-05f5-470e-b6ad-ee8fe476e582:41027896:ed25bfce-e92b-4b56-8d33-e10ba33a38c0",
      "id" : 13781081,
      "list_ids" : [
        396563172
      ],
      "revision" : 2,
      "title" : "Test create folder updated",
      "type" : "folder",
      "updated_at" : "2019-06-13T09:59:15.191Z",
      "user_id" : 41027896
    },
    {
      "created_at" : "2019-05-18T11:05:54.978Z",
      "created_by_id" : 41027896,
      "created_by_request_id" : "498d3ffc44ddfa2f275b:176a2be5-47ff-44fc-957f-7cc224c2848e:29ba82c2-ca83-467b-861c-ca9c-0d8a0136:41027896:lwa962a690ed53bfda1267b8a8d1817a",
      "id" : 13627916,
      "list_ids" : [
        394163194,
        394163197
      ],
      "revision" : 2,
      "title" : "Test folder",
      "type" : "folder",
      "updated_at" : "2019-05-18T11:06:06.709Z",
      "user_id" : 41027896
    }
  ],
  "list_positions" : [
    {
      "id" : 41027896,
      "revision" : 86,
      "type" : "list_position",
      "user_id" : 41027896,
      "values" : [
        396563172,
        353279260,
        394163194,
        394163197,
        394200629,
        286646344
      ]
    }
  ],
  "lists" : [
    {
      "created_at" : "2017-01-17T17:08:18.191Z",
      "id" : 286646344,
      "list_type" : "list",
      "owner_id" : 41027896,
      "owner_type" : "user",
      "public" : false,
      "revision" : 196,
      "title" : "inbox",
      "type" : "list"
    },
    {
      "created_at" : "2019-06-13T09:58:37.944Z",
      "created_by_request_id" : "3662fd0097daf4f3bc3d:3bd34e2e-7a39-5939-a429-5070d27920cd:e4844207-05f5-470e-b6ad-ee8fe476e582:41027896:58a950a2-1197-481c-9870-60e35ffc8495",
      "id" : 396563172,
      "list_type" : "list",
      "owner_id" : 41027896,
      "owner_type" : "user",
      "public" : false,
      "revision" : 8,
      "title" : "Test create list updated title",
      "type" : "list"
    },
    {
      "created_at" : "2019-05-18T10:50:28.024Z",
      "created_by_request_id" : "498d3ffc44ddfa2f275b:176a2be5-47ff-44fc-957f-7cc224c2848e:29ba82c2-ca83-467b-861c-ca9c-0d8a0136:41027896:lw3e9aaf0b1abb016586a147d5757498",
      "id" : 394163197,
      "list_type" : "list",
      "owner_id" : 41027896,
      "owner_type" : "user",
      "public" : false,
      "revision" : 9,
      "title" : "List 2",
      "type" : "list"
    },
    {
      "created_at" : "2019-05-18T10:50:20.626Z",
      "created_by_request_id" : "498d3ffc44ddfa2f275b:176a2be5-47ff-44fc-957f-7cc224c2848e:29ba82c2-ca83-467b-861c-ca9c-0d8a0136:41027896:lw269fd1532d35f262389fe7e764049b",
      "id" : 394163194,
      "list_type" : "list",
      "owner_id" : 41027896,
      "owner_type" : "user",
      "public" : false,
      "revision" : 5,
      "title" : "List 1",
      "type" : "list"
    },
    {
      "created_at" : "2018-06-07T16:26:22.916Z",
      "created_by_request_id" : "498d3ffc44ddfa2f275b:af05db92-e99a-47c0-bb9b-7ba89a0f12f3:9c142af4-98b1-41d2-b469-2d7b-043dc8f3:84504316:lw4ce27c530b281b6bf93eee8c66e7e5",
      "id" : 353279260,
      "list_type" : "list",
      "owner_id" : 84504316,
      "owner_type" : "user",
      "public" : false,
      "revision" : 33,
      "title" : "Shared from plemu2005",
      "type" : "list"
    },
    {
      "created_at" : "2019-05-18T22:16:43.691Z",
      "created_by_request_id" : "498d3ffc44ddfa2f275b:176a2be5-47ff-44fc-957f-7cc224c2848e:02c015fa-1e2d-40f0-9e17-59f2-09be8855:41027896:lwf6be99baaab369668d0252748c10d4",
      "id" : 394200629,
      "list_type" : "list",
      "owner_id" : 41027896,
      "owner_type" : "user",
      "public" : false,
      "revision" : 23,
      "title" : "List 3",
      "type" : "list"
    }
  ],
  "memberships" : [
    {
      "id" : 359202640,
      "list_id" : 394200629,
      "owner" : true,
      "revision" : 4,
      "state" : "accepted",
      "type" : "membership",
      "user_id" : 41027896
    },
    {
      "id" : 359158046,
      "list_id" : 394163194,
      "owner" : true,
      "revision" : 3,
      "state" : "accepted",
      "type" : "membership",
      "user_id" : 41027896
    },
    {
      "id" : 361960341,
      "list_id" : 396563172,
      "owner" : true,
      "revision" : 3,
      "state" : "accepted",
      "type" : "membership",
      "user_id" : 41027896
    },
    {
      "id" : 312566793,
      "list_id" : 353279260,
      "owner" : true,
      "revision" : 10,
      "state" : "accepted",
      "type" : "membership",
      "user_id" : 84504316
    },
    {
      "id" : 206338424,
      "list_id" : 286646344,
      "owner" : true,
      "revision" : 35,
      "state" : "accepted",
      "type" : "membership",
      "user_id" : 41027896
    },
    {
      "created_by_request_id" : "498d3ffc44ddfa2f275b:af05db92-e99a-47c0-bb9b-7ba89a0f12f3:9c142af4-98b1-41d2-b469-2d7b-043dc8f3:84504316:lwc6fac67d8c6a26b9ce3445c42fd6e3",
      "id" : 312567240,
      "list_id" : 353279260,
      "muted" : true,
      "owner" : false,
      "revision" : 17,
      "state" : "accepted",
      "type" : "membership",
      "user_id" : 41027896
    },
    {
      "id" : 359158049,
      "list_id" : 394163197,
      "owner" : true,
      "revision" : 1,
      "state" : "accepted",
      "type" : "membership",
      "user_id" : 41027896
    }
  ],
  "notes" : [
    {
      "content" : "Note",
      "created_by_request_id" : "498d3ffc44ddfa2f275b:176a2be5-47ff-44fc-957f-7cc224c2848e:29ba82c2-ca83-467b-861c-ca9c-0d8a0136:41027896:lw83557d5ae76c6d50221deab24c25a2",
      "id" : 315759186,
      "revision" : 1,
      "task_id" : 5030462416,
      "type" : "note"
    },
    {
      "content" : "",
      "created_by_request_id" : "498d3ffc44ddfa2f275b:acca153e-a09b-40eb-822f-8dcdfc159a6d:de16b2bf-1c47-4713-8026-29c3-b58b5d21:41027896:lw910ccf163fd92bd2055b8d1ca1e107",
      "id" : 318621151,
      "revision" : 3,
      "task_id" : 5032102009,
      "type" : "note"
    },
    {
      "content" : "Note...\nSecond line.",
      "created_by_request_id" : "498d3ffc44ddfa2f275b:af05db92-e99a-47c0-bb9b-7ba89a0f12f3:133a8dca-3019-4f11-bb5e-ea2e-0bbda505:41027896:lw9be47643ed983ca61b2998c2ecd9c4",
      "id" : 254942590,
      "revision" : 1,
      "task_id" : 3858184298,
      "type" : "note"
    },
    {
      "content" : "Create test note",
      "created_by_request_id" : "3662fd0097daf4f3bc3d:3bd34e2e-7a39-5939-a429-5070d27920cd:e4844207-05f5-470e-b6ad-ee8fe476e582:41027896:cd44a505-96da-4081-846b-10a7c5572942",
      "id" : 319655934,
      "revision" : 1,
      "task_id" : 5112132519,
      "type" : "note"
    }
  ],
  "reminders" : [
    {
      "created_at" : "2019-06-05T07:10:32.286Z",
      "created_by_request_id" : "498d3ffc44ddfa2f275b:acca153e-a09b-40eb-822f-8dcdfc159a6d:de16b2bf-1c47-4713-8026-29c3-b58b5d21:41027896:lw12aed669d61920f3ab18711034f916",
      "date" : "2019-06-06T08:00:00.000Z",
      "id" : 661996666,
      "revision" : 1,
      "task_id" : 3858184298,
      "type" : "reminder",
      "updated_at" : "2019-06-06T08:03:18.907Z"
    },
    {
      "created_at" : "2019-05-18T23:12:50.872Z",
      "created_by_request_id" : "498d3ffc44ddfa2f275b:176a2be5-47ff-44fc-957f-7cc224c2848e:02c015fa-1e2d-40f0-9e17-59f2-09be8855:41027896:lw84eabc4d450bd1533400e6b5e0f0d4",
      "date" : "2019-05-20T09:30:00.000Z",
      "id" : 654365671,
      "revision" : 1,
      "task_id" : 5032175359,
      "type" : "reminder",
      "updated_at" : "2019-05-20T09:30:09.526Z"
    },
    {
      "created_at" : "2019-06-13T09:58:58.134Z",
      "created_by_request_id" : "3662fd0097daf4f3bc3d:3bd34e2e-7a39-5939-a429-5070d27920cd:e4844207-05f5-470e-b6ad-ee8fe476e582:41027896:668019c6-1890-403f-8359-0d2c2f894340",
      "date" : "2019-06-13T09:58:58.019Z",
      "id" : 665399320,
      "revision" : 1,
      "task_id" : 5112132519,
      "type" : "reminder",
      "updated_at" : "2019-06-13T09:58:58.969Z"
    },
    {
      "created_at" : "2019-05-19T06:07:52.106Z",
      "created_by_request_id" : "498d3ffc44ddfa2f275b:176a2be5-47ff-44fc-957f-7cc224c2848e:02c015fa-1e2d-40f0-9e17-59f2-09be8855:41027896:lweb90bff9e5a2cbef0aae20fd3a53c5",
      "date" : "2020-05-20T07:00:00.000Z",
      "id" : 654420638,
      "revision" : 1,
      "task_id" : 5030461917,
      "type" : "reminder",
      "updated_at" : "2019-05-19T06:07:52.106Z"
    }
  ],
  "root" : {
    "id" : 41027896,
    "revision" : 26454,
    "type" : "root",
    "user_id" : 41027896
  },
  "settings" : [
    {
      "created_by_request_id" : "498d3ffc44ddfa2f275b:59dcbc57-c7a6-49c2-a2d4-4f51d477c2e2:607473a7-1f3c-4879-8251-48a1-471141d7:41027896:lw67144858c445609f6af691fd3dc2d3",
      "id" : 383659121,
      "key" : "smartlistVisibilityDone",
      "revision" : 1,
      "type" : "setting",
      "value" : "hidden"
    },
    {
      "created_by_request_id" : "498d3ffc44ddfa2f275b:59dcbc57-c7a6-49c2-a2d4-4f51d477c2e2:607473a7-1f3c-4879-8251-48a1-471141d7:41027896:lwcee2699b2b0ee58a1d69719a8cc1c4",
      "id" : 383659110,
      "key" : "smartlistVisibilityAll",
      "revision" : 1,
      "type" : "setting",
      "value" : "hidden"
    },
    {
      "created_by_request_id" : "498d3ffc44ddfa2f275b:59dcbc57-c7a6-49c2-a2d4-4f51d477c2e2:607473a7-1f3c-4879-8251-48a1-471141d7:41027896:lwcdf7462eef5d7ca98473b0493f7b1e",
      "id" : 383659124,
      "key" : "smartlistVisibilityWeek",
      "revision" : 5,
      "type" : "setting",
      "value" : "visible"
    },
    {
      "created_by_request_id" : "498d3ffc44ddfa2f275b:59dcbc57-c7a6-49c2-a2d4-4f51d477c2e2:607473a7-1f3c-4879-8251-48a1-471141d7:41027896:lwa6d3a0d7eb67019205596afb6dc03e",
      "id" : 383659060,
      "key" : "printCompletedItems",
      "revision" : 1,
      "type" : "setting",
      "value" : "false"
    },
    {
      "created_by_request_id" : "498d3ffc44ddfa2f275b:7f50d159-ea0d-4ba2-8a4c-041b7bfc8860:77d0a74f-c073-428b-8848-62f8-96fd968b:41027896:lwc10d9d1fd30691ce5898264fe21f24",
      "id" : 405405885,
      "key" : "webWebappSidebarFolderGuideDidShow",
      "revision" : 1,
      "type" : "setting",
      "value" : "true"
    },
    {
      "created_by_request_id" : "498d3ffc44ddfa2f275b:59dcbc57-c7a6-49c2-a2d4-4f51d477c2e2:607473a7-1f3c-4879-8251-48a1-471141d7:41027896:lwb1cf7c82f4a8ae35951e253dc79c72",
      "id" : 383659139,
      "key" : "newsletterSubscriptionEnabled",
      "revision" : 1,
      "type" : "setting",
      "value" : "false"
    },
    {
      "created_by_request_id" : "498d3ffc44ddfa2f275b:59dcbc57-c7a6-49c2-a2d4-4f51d477c2e2:607473a7-1f3c-4879-8251-48a1-471141d7:41027896:lw7e16b2540a695b7d56e184550fc4da",
      "id" : 383659125,
      "key" : "smartlistVisibilityAssignedToMe",
      "revision" : 3,
      "type" : "setting",
      "value" : "visible"
    },
    {
      "created_by_request_id" : "498d3ffc44ddfa2f275b:59dcbc57-c7a6-49c2-a2d4-4f51d477c2e2:607473a7-1f3c-4879-8251-48a1-471141d7:41027896:lw12cbd1c22184e012ca1b62039ef9ea",
      "id" : 383659137,
      "key" : "showCompletedItems",
      "revision" : 1,
      "type" : "setting",
      "value" : "true"
    },
    {
      "created_by_request_id" : "498d3ffc44ddfa2f275b:59dcbc57-c7a6-49c2-a2d4-4f51d477c2e2:607473a7-1f3c-4879-8251-48a1-471141d7:41027896:lw08a64a4cb542db812315ad482cbb6e",
      "id" : 383659113,
      "key" : "smartlistVisibilityStarred",
      "revision" : 7,
      "type" : "setting",
      "value" : "visible"
    },
    {
      "created_by_request_id" : "498d3ffc44ddfa2f275b:59dcbc57-c7a6-49c2-a2d4-4f51d477c2e2:607473a7-1f3c-4879-8251-48a1-471141d7:41027896:lw9f5ecdde07ad37c87d1390266c8e82",
      "id" : 383659144,
      "key" : "webOnboardingClickCreateList",
      "revision" : 1,
      "type" : "setting",
      "value" : "false"
    },
    {
      "created_by_request_id" : "498d3ffc44ddfa2f275b:59dcbc57-c7a6-49c2-a2d4-4f51d477c2e2:607473a7-1f3c-4879-8251-48a1-471141d7:41027896:lwe9d4a3c5934967eb93b51369172951",
      "id" : 383659140,
      "key" : "showSubtaskProgress",
      "revision" : 1,
      "type" : "setting",
      "value" : "true"
    },
    {
      "created_by_request_id" : "498d3ffc44ddfa2f275b:59dcbc57-c7a6-49c2-a2d4-4f51d477c2e2:607473a7-1f3c-4879-8251-48a1-471141d7:41027896:lw3c76c38c44de689bf8ca3a85ebab8f",
      "id" : 383659087,
      "key" : "webShortcutGotoFilterAssigned",
      "revision" : 1,
      "type" : "setting",
      "value" : "CTRL + 1"
    },
    {
      "created_by_request_id" : "498d3ffc44ddfa2f275b:59dcbc57-c7a6-49c2-a2d4-4f51d477c2e2:607473a7-1f3c-4879-8251-48a1-471141d7:41027896:lwd97fa6e82d9ac35fec386a8ce40b67",
      "id" : 383659134,
      "key" : "soundCheckoffEnabled",
      "revision" : 11,
      "type" : "setting",
      "value" : "true"
    },
    {
      "created_by_request_id" : "498d3ffc44ddfa2f275b:59dcbc57-c7a6-49c2-a2d4-4f51d477c2e2:607473a7-1f3c-4879-8251-48a1-471141d7:41027896:lwc45c5d56bd7b665ac0b5774bbf5c76",
      "id" : 383659083,
      "key" : "webShortcutMarkTaskDone",
      "revision" : 1,
      "type" : "setting",
      "value" : "CTRL + D"
    },
    {
      "created_by_request_id" : "498d3ffc44ddfa2f275b:59dcbc57-c7a6-49c2-a2d4-4f51d477c2e2:607473a7-1f3c-4879-8251-48a1-471141d7:41027896:lw9829d8c85d4df887a19d9a9d8635c9",
      "id" : 383659042,
      "key" : "webEnableNaturalDateRecognition",
      "revision" : 1,
      "type" : "setting",
      "value" : "true"
    },
    {
      "created_by_request_id" : "498d3ffc44ddfa2f275b:59dcbc57-c7a6-49c2-a2d4-4f51d477c2e2:607473a7-1f3c-4879-8251-48a1-471141d7:41027896:lw55ff39c358c1f98babec73294dbf03",
      "id" : 383659055,
      "key" : "webTimeFormat",
      "revision" : 1,
      "type" : "setting",
      "value" : "24 hour"
    },
    {
      "created_by_request_id" : "498d3ffc44ddfa2f275b:59dcbc57-c7a6-49c2-a2d4-4f51d477c2e2:607473a7-1f3c-4879-8251-48a1-471141d7:41027896:lw913d54a6391c3257766013a2ab3981",
      "id" : 383659039,
      "key" : "webId",
      "revision" : 1,
      "type" : "setting",
      "value" : "userSettings"
    },
    {
      "created_by_request_id" : "498d3ffc44ddfa2f275b:59dcbc57-c7a6-49c2-a2d4-4f51d477c2e2:607473a7-1f3c-4879-8251-48a1-471141d7:41027896:lwb3caa88cbd7e803839567175d60d9b",
      "id" : 383659131,
      "key" : "notificationsEmailEnabled",
      "revision" : 1,
      "type" : "setting",
      "value" : "true"
    },
    {
      "created_by_request_id" : "498d3ffc44ddfa2f275b:59dcbc57-c7a6-49c2-a2d4-4f51d477c2e2:607473a7-1f3c-4879-8251-48a1-471141d7:41027896:lw7e0ea4d035b2d65450c39590a0d333",
      "id" : 383659088,
      "key" : "webShortcutAddNewList",
      "revision" : 1,
      "type" : "setting",
      "value" : "CTRL + SHIFT + L"
    },
    {
      "created_by_request_id" : "498d3ffc44ddfa2f275b:59dcbc57-c7a6-49c2-a2d4-4f51d477c2e2:607473a7-1f3c-4879-8251-48a1-471141d7:41027896:lw3820033f2e378e19c2a0146f7220d6",
      "id" : 383659128,
      "key" : "smartDates",
      "revision" : 1,
      "type" : "setting",
      "value" : "on"
    },
    {
      "created_by_request_id" : "498d3ffc44ddfa2f275b:59dcbc57-c7a6-49c2-a2d4-4f51d477c2e2:607473a7-1f3c-4879-8251-48a1-471141d7:41027896:lw905db3691b9900c6261d546d325042",
      "id" : 383659053,
      "key" : "behaviorStarTasksToTop",
      "revision" : 1,
      "type" : "setting",
      "value" : "true"
    },
    {
      "created_by_request_id" : "498d3ffc44ddfa2f275b:59dcbc57-c7a6-49c2-a2d4-4f51d477c2e2:607473a7-1f3c-4879-8251-48a1-471141d7:41027896:lw3fb59cc84c423840df7cfdbae5f4d6",
      "id" : 383659054,
      "key" : "confirmDeleteEntity",
      "revision" : 1,
      "type" : "setting",
      "value" : "true"
    },
    {
      "created_by_request_id" : "498d3ffc44ddfa2f275b:59dcbc57-c7a6-49c2-a2d4-4f51d477c2e2:607473a7-1f3c-4879-8251-48a1-471141d7:41027896:lweaab15e38d5e69960e900cef6a3393",
      "id" : 383659056,
      "key" : "migratedWunderlistOneUser",
      "revision" : 1,
      "type" : "setting",
      "value" : "true"
    },
    {
      "created_by_request_id" : "498d3ffc44ddfa2f275b:59dcbc57-c7a6-49c2-a2d4-4f51d477c2e2:607473a7-1f3c-4879-8251-48a1-471141d7:41027896:lwe161025b206f233cce943a9859f62a",
      "id" : 383659096,
      "key" : "webShortcutGotoFilterWeek",
      "revision" : 1,
      "type" : "setting",
      "value" : "CTRL + 4"
    },
    {
      "created_by_request_id" : "498d3ffc44ddfa2f275b:59dcbc57-c7a6-49c2-a2d4-4f51d477c2e2:607473a7-1f3c-4879-8251-48a1-471141d7:41027896:lw4c756570a4967c620d727eb434a504",
      "id" : 383659043,
      "key" : "startOfWeek",
      "revision" : 1,
      "type" : "setting",
      "value" : "sun"
    },
    {
      "created_by_request_id" : "498d3ffc44ddfa2f275b:59dcbc57-c7a6-49c2-a2d4-4f51d477c2e2:607473a7-1f3c-4879-8251-48a1-471141d7:41027896:lwfd1b255a00012bcf535c89839b6589",
      "id" : 383659130,
      "key" : "notificationsDesktopEnabled",
      "revision" : 2,
      "type" : "setting",
      "value" : "false"
    },
    {
      "created_by_request_id" : "498d3ffc44ddfa2f275b:59dcbc57-c7a6-49c2-a2d4-4f51d477c2e2:607473a7-1f3c-4879-8251-48a1-471141d7:41027896:lw085c23bf0c1c8e399170c1e3e9a07c",
      "id" : 383659045,
      "key" : "newTaskLocation",
      "revision" : 1,
      "type" : "setting",
      "value" : "top"
    },
    {
      "created_by_request_id" : "498d3ffc44ddfa2f275b:59dcbc57-c7a6-49c2-a2d4-4f51d477c2e2:607473a7-1f3c-4879-8251-48a1-471141d7:41027896:lw47e3e1f9f76b33a3e26612a3e87f36",
      "id" : 383659097,
      "key" : "webShortcutGotoPreferences",
      "revision" : 1,
      "type" : "setting",
      "value" : "CTRL + P"
    },
    {
      "created_by_request_id" : "498d3ffc44ddfa2f275b:59dcbc57-c7a6-49c2-a2d4-4f51d477c2e2:607473a7-1f3c-4879-8251-48a1-471141d7:41027896:lwd6589f86faf0c5247aab97f4f99b4e",
      "id" : 383659101,
      "key" : "webShortcutGotoFilterToday",
      "revision" : 1,
      "type" : "setting",
      "value" : "CTRL + 3"
    },
    {
      "created_by_request_id" : "498d3ffc44ddfa2f275b:d6940189-9ecc-41ff-930d-877bdc8a0692:7f515120-50ed-49d8-a0de-4ae8-2cc4a826:41027896:lw2096ded8c1ad5409bb029bfc6ea321",
      "id" : 521898126,
      "key" : "unknown",
      "revision" : 3,
      "type" : "setting",
      "value" : "Web-3.19.25"
    },
    {
      "created_by_request_id" : "498d3ffc44ddfa2f275b:59dcbc57-c7a6-49c2-a2d4-4f51d477c2e2:607473a7-1f3c-4879-8251-48a1-471141d7:41027896:lw08d3c186aaf359fbeb13cefbc1a52c",
      "id" : 383659143,
      "key" : "webEnableHtmlContextMenus",
      "revision" : 1,
      "type" : "setting",
      "value" : "true"
    },
    {
      "created_by_request_id" : "498d3ffc44ddfa2f275b:59dcbc57-c7a6-49c2-a2d4-4f51d477c2e2:607473a7-1f3c-4879-8251-48a1-471141d7:41027896:lw81b99abfd26a3b088a62b469222851",
      "id" : 383659098,
      "key" : "webShortcutGotoFilterCompleted",
      "revision" : 1,
      "type" : "setting",
      "value" : "CTRL + 6"
    },
    {
      "id" : 383658098,
      "key" : "accountLocale",
      "revision" : 4,
      "type" : "setting",
      "value" : "en_US"
    },
    {
      "created_by_request_id" : "498d3ffc44ddfa2f275b:59dcbc57-c7a6-49c2-a2d4-4f51d477c2e2:607473a7-1f3c-4879-8251-48a1-471141d7:41027896:lw0ae5aabf5f0f2bd36104cf686facac",
      "id" : 383659136,
      "key" : "webProTrialLimitComments",
      "revision" : 1,
      "type" : "setting",
      "value" : "10"
    },
    {
      "created_by_request_id" : "498d3ffc44ddfa2f275b:59dcbc57-c7a6-49c2-a2d4-4f51d477c2e2:607473a7-1f3c-4879-8251-48a1-471141d7:41027896:lw3d5379d62b8a181f656d992c34cc74",
      "id" : 383659145,
      "key" : "webOnboardingClickShareList",
      "revision" : 1,
      "type" : "setting",
      "value" : "false"
    },
    {
      "created_by_request_id" : "498d3ffc44ddfa2f275b:59dcbc57-c7a6-49c2-a2d4-4f51d477c2e2:607473a7-1f3c-4879-8251-48a1-471141d7:41027896:lwe175ea676b527e860a27eacbd52c0b",
      "id" : 383659115,
      "key" : "webShortcutSendViaEmail",
      "revision" : 1,
      "type" : "setting",
      "value" : "CTRL + E"
    },
    {
      "created_by_request_id" : "498d3ffc44ddfa2f275b:59dcbc57-c7a6-49c2-a2d4-4f51d477c2e2:607473a7-1f3c-4879-8251-48a1-471141d7:41027896:lwc77ffffefe00bc97edfa82cce77944",
      "id" : 383659086,
      "key" : "webShortcutAddNewTask",
      "revision" : 1,
      "type" : "setting",
      "value" : "CTRL + N"
    },
    {
      "created_by_request_id" : "498d3ffc44ddfa2f275b:59dcbc57-c7a6-49c2-a2d4-4f51d477c2e2:607473a7-1f3c-4879-8251-48a1-471141d7:41027896:lw7d9a0f432ee3f3d2a1b91b7fd91f35",
      "id" : 383659127,
      "key" : "automaticReminders",
      "revision" : 1,
      "type" : "setting",
      "value" : "on"
    },
    {
      "created_by_request_id" : "498d3ffc44ddfa2f275b:59dcbc57-c7a6-49c2-a2d4-4f51d477c2e2:607473a7-1f3c-4879-8251-48a1-471141d7:41027896:lwaf9dbceeab72049992b66b9e8a6c86",
      "id" : 383659132,
      "key" : "notificationsPushEnabled",
      "revision" : 1,
      "type" : "setting",
      "value" : "true"
    },
    {
      "created_by_request_id" : "498d3ffc44ddfa2f275b:59dcbc57-c7a6-49c2-a2d4-4f51d477c2e2:607473a7-1f3c-4879-8251-48a1-471141d7:41027896:lwa6132cd25b9e9bf830cb5297af4a7a",
      "id" : 383659142,
      "key" : "webLocale",
      "revision" : 1,
      "type" : "setting",
      "value" : "ru"
    },
    {
      "created_by_request_id" : "498d3ffc44ddfa2f275b:59dcbc57-c7a6-49c2-a2d4-4f51d477c2e2:607473a7-1f3c-4879-8251-48a1-471141d7:41027896:lwf049185e6629eb2ce81a65d34c27d3",
      "id" : 383659116,
      "key" : "webShortcutPasteTasks",
      "revision" : 1,
      "type" : "setting",
      "value" : "CTRL + V"
    },
    {
      "created_by_request_id" : "498d3ffc44ddfa2f275b:176a2be5-47ff-44fc-957f-7cc224c2848e:29ba82c2-ca83-467b-861c-ca9c-0d8a0136:41027896:lwe03bd3256e2efd4322155573c67697",
      "id" : 526222258,
      "key" : "unknown",
      "revision" : 10,
      "type" : "setting",
      "value" : "2019-04-29,2019-05-18,2019-05-24,2019-05-28,2019-05-29,2019-06-04,2019-06-05,2019-06-06,2019-06-07,2019-06-12,2019-06-13"
    },
    {
      "created_by_request_id" : "498d3ffc44ddfa2f275b:59dcbc57-c7a6-49c2-a2d4-4f51d477c2e2:607473a7-1f3c-4879-8251-48a1-471141d7:41027896:lweac14df74c2308bff521bd5549d6c7",
      "id" : 383659138,
      "key" : "webProTrialLimitFiles",
      "revision" : 1,
      "type" : "setting",
      "value" : "3"
    },
    {
      "created_by_request_id" : "498d3ffc44ddfa2f275b:59dcbc57-c7a6-49c2-a2d4-4f51d477c2e2:607473a7-1f3c-4879-8251-48a1-471141d7:41027896:lw409d1cce6d524cc8013857f9771370",
      "id" : 383659123,
      "key" : "todaySmartListVisibleTasks",
      "revision" : 1,
      "type" : "setting",
      "value" : "all"
    },
    {
      "created_by_request_id" : "498d3ffc44ddfa2f275b:59dcbc57-c7a6-49c2-a2d4-4f51d477c2e2:607473a7-1f3c-4879-8251-48a1-471141d7:41027896:lweb37a86707c092c1d986ae55b1cd1b",
      "id" : 383659082,
      "key" : "webShortcutGotoSearch",
      "revision" : 1,
      "type" : "setting",
      "value" : "CTRL + F"
    },
    {
      "created_by_request_id" : "498d3ffc44ddfa2f275b:59dcbc57-c7a6-49c2-a2d4-4f51d477c2e2:607473a7-1f3c-4879-8251-48a1-471141d7:41027896:lwbb55f9770db407d33f80f9c2d43b2c",
      "id" : 383659111,
      "key" : "webShortcutSync",
      "revision" : 1,
      "type" : "setting",
      "value" : "R"
    },
    {
      "created_by_request_id" : "498d3ffc44ddfa2f275b:59dcbc57-c7a6-49c2-a2d4-4f51d477c2e2:607473a7-1f3c-4879-8251-48a1-471141d7:41027896:lwa4bae7377cc769769f74edcc0914ee",
      "id" : 383659057,
      "key" : "webAddToFirefox",
      "revision" : 1,
      "type" : "setting",
      "value" : "false"
    },
    {
      "created_by_request_id" : "498d3ffc44ddfa2f275b:59dcbc57-c7a6-49c2-a2d4-4f51d477c2e2:607473a7-1f3c-4879-8251-48a1-471141d7:41027896:lw31fbd6e014e1bc6a62ceae7e3bb2cf",
      "id" : 383659040,
      "key" : "webType",
      "revision" : 1,
      "type" : "setting",
      "value" : "userSettings"
    },
    {
      "created_by_request_id" : "498d3ffc44ddfa2f275b:59dcbc57-c7a6-49c2-a2d4-4f51d477c2e2:607473a7-1f3c-4879-8251-48a1-471141d7:41027896:lw60578f5940b69c92a3cd93be745aa5",
      "id" : 383659114,
      "key" : "webShortcutCopyTasks",
      "revision" : 1,
      "type" : "setting",
      "value" : "CTRL + C"
    },
    {
      "created_by_request_id" : "498d3ffc44ddfa2f275b:59dcbc57-c7a6-49c2-a2d4-4f51d477c2e2:607473a7-1f3c-4879-8251-48a1-471141d7:41027896:lwdcf0153f7ea963b24f34362ed24ba7",
      "id" : 383659070,
      "key" : "webLastOpenAppDate",
      "revision" : 1,
      "type" : "setting",
      "value" : "0"
    },
    {
      "created_by_request_id" : "498d3ffc44ddfa2f275b:59dcbc57-c7a6-49c2-a2d4-4f51d477c2e2:607473a7-1f3c-4879-8251-48a1-471141d7:41027896:lwdd120b51eb8257a2a596aabf51319d",
      "id" : 383659084,
      "key" : "webShortcutMarkTaskStarred",
      "revision" : 1,
      "type" : "setting",
      "value" : "CTRL + S"
    },
    {
      "created_by_request_id" : "498d3ffc44ddfa2f275b:59dcbc57-c7a6-49c2-a2d4-4f51d477c2e2:607473a7-1f3c-4879-8251-48a1-471141d7:41027896:lwa5e94f9270973994d292535fccbed1",
      "id" : 383659100,
      "key" : "webShortcutShowNotifications",
      "revision" : 1,
      "type" : "setting",
      "value" : "CTRL + SHIFT + A"
    },
    {
      "created_by_request_id" : "498d3ffc44ddfa2f275b:59dcbc57-c7a6-49c2-a2d4-4f51d477c2e2:607473a7-1f3c-4879-8251-48a1-471141d7:41027896:lw82bf979cfccb761af3ab4340431ace",
      "id" : 383659122,
      "key" : "smartlistVisibilityToday",
      "revision" : 3,
      "type" : "setting",
      "value" : "visible"
    },
    {
      "created_by_request_id" : "498d3ffc44ddfa2f275b:59dcbc57-c7a6-49c2-a2d4-4f51d477c2e2:607473a7-1f3c-4879-8251-48a1-471141d7:41027896:lwa274d8f3568b7bc7d682cb2c8778ad",
      "id" : 383659058,
      "key" : "webAddToChrome",
      "revision" : 1,
      "type" : "setting",
      "value" : "false"
    },
    {
      "created_by_request_id" : "498d3ffc44ddfa2f275b:59dcbc57-c7a6-49c2-a2d4-4f51d477c2e2:607473a7-1f3c-4879-8251-48a1-471141d7:41027896:lw3ca42d04546dca86cd0e22465bd01f",
      "id" : 383659112,
      "key" : "webShortcutSelectAllTasks",
      "revision" : 1,
      "type" : "setting",
      "value" : "CTRL + A"
    },
    {
      "created_by_request_id" : "498d3ffc44ddfa2f275b:59dcbc57-c7a6-49c2-a2d4-4f51d477c2e2:607473a7-1f3c-4879-8251-48a1-471141d7:41027896:lw77e986d2f376c3813ec335ac02bc50",
      "id" : 383659074,
      "key" : "webChromeAppRatingLater",
      "revision" : 1,
      "type" : "setting",
      "value" : "undefined"
    },
    {
      "created_by_request_id" : "498d3ffc44ddfa2f275b:59dcbc57-c7a6-49c2-a2d4-4f51d477c2e2:607473a7-1f3c-4879-8251-48a1-471141d7:41027896:lwbe43577a40123c90da78568f923022",
      "id" : 383659072,
      "key" : "webChromeRatingLater",
      "revision" : 2,
      "type" : "setting",
      "value" : "1556485200000"
    },
    {
      "created_by_request_id" : "498d3ffc44ddfa2f275b:59dcbc57-c7a6-49c2-a2d4-4f51d477c2e2:607473a7-1f3c-4879-8251-48a1-471141d7:41027896:lw57bd75fad04a32a227bdb676ae2ec1",
      "id" : 383659071,
      "key" : "webSignificantEventCount",
      "revision" : 10,
      "type" : "setting",
      "value" : "9"
    },
    {
      "created_by_request_id" : "498d3ffc44ddfa2f275b:59dcbc57-c7a6-49c2-a2d4-4f51d477c2e2:607473a7-1f3c-4879-8251-48a1-471141d7:41027896:lwabd86be6a8e09fba0237ef729b3037",
      "id" : 383659069,
      "key" : "webShortcutDelete",
      "revision" : 1,
      "type" : "setting",
      "value" : "CTRL + BACKSPACE"
    },
    {
      "created_by_request_id" : "498d3ffc44ddfa2f275b:59dcbc57-c7a6-49c2-a2d4-4f51d477c2e2:607473a7-1f3c-4879-8251-48a1-471141d7:41027896:lw3045b73d89531b111461cbfe137246",
      "id" : 383659073,
      "key" : "webNewInstallation",
      "revision" : 1,
      "type" : "setting",
      "value" : "false"
    },
    {
      "created_by_request_id" : "498d3ffc44ddfa2f275b:59dcbc57-c7a6-49c2-a2d4-4f51d477c2e2:607473a7-1f3c-4879-8251-48a1-471141d7:41027896:lw9e49032579de55d684bbbd2e378d48",
      "id" : 383659129,
      "key" : "smartDatesRemoveFromTodo",
      "revision" : 1,
      "type" : "setting",
      "value" : "on"
    },
    {
      "created_by_request_id" : "498d3ffc44ddfa2f275b:59dcbc57-c7a6-49c2-a2d4-4f51d477c2e2:607473a7-1f3c-4879-8251-48a1-471141d7:41027896:lw7ae3628c1b7c63dfb23efb79a30195",
      "id" : 383659135,
      "key" : "webProTrialLimitAssigning",
      "revision" : 1,
      "type" : "setting",
      "value" : "3"
    },
    {
      "created_by_request_id" : "498d3ffc44ddfa2f275b:59dcbc57-c7a6-49c2-a2d4-4f51d477c2e2:607473a7-1f3c-4879-8251-48a1-471141d7:41027896:lw1de2c493e20e81560f7a6122ed1e35",
      "id" : 383659044,
      "key" : "webDateFormat",
      "revision" : 1,
      "type" : "setting",
      "value" : "DD.MM.YYYY"
    },
    {
      "created_by_request_id" : "498d3ffc44ddfa2f275b:59dcbc57-c7a6-49c2-a2d4-4f51d477c2e2:607473a7-1f3c-4879-8251-48a1-471141d7:41027896:lwc96183a4c20fa8a1928f5edec3ab23",
      "id" : 383659041,
      "key" : "webLanguage",
      "revision" : 2,
      "type" : "setting",
      "value" : "en_US"
    },
    {
      "created_by_request_id" : "498d3ffc44ddfa2f275b:59dcbc57-c7a6-49c2-a2d4-4f51d477c2e2:607473a7-1f3c-4879-8251-48a1-471141d7:41027896:lw6637b2a7d3a4b2bc5cd73a27eca879",
      "id" : 383659099,
      "key" : "webShortcutGotoFilterStarred",
      "revision" : 1,
      "type" : "setting",
      "value" : "CTRL + 2"
    },
    {
      "created_by_request_id" : "498d3ffc44ddfa2f275b:59dcbc57-c7a6-49c2-a2d4-4f51d477c2e2:607473a7-1f3c-4879-8251-48a1-471141d7:41027896:lwa4cd6efea35eb0d431ae5b190f58db",
      "id" : 383659102,
      "key" : "webShortcutGotoFilterAll",
      "revision" : 1,
      "type" : "setting",
      "value" : "CTRL + 5"
    },
    {
      "created_by_request_id" : "498d3ffc44ddfa2f275b:59dcbc57-c7a6-49c2-a2d4-4f51d477c2e2:607473a7-1f3c-4879-8251-48a1-471141d7:41027896:lwb954d144c11b7a1969392f3fe741b0",
      "id" : 383659133,
      "key" : "soundNotificationEnabled",
      "revision" : 1,
      "type" : "setting",
      "value" : "true"
    },
    {
      "created_by_request_id" : "498d3ffc44ddfa2f275b:59dcbc57-c7a6-49c2-a2d4-4f51d477c2e2:607473a7-1f3c-4879-8251-48a1-471141d7:41027896:lwb1baf9f6bf1c79f28e9e939a8ffd7f",
      "id" : 383659068,
      "key" : "webAppFirstUsed",
      "revision" : 9,
      "type" : "setting",
      "value" : "1560373200000"
    },
    {
      "created_by_request_id" : "498d3ffc44ddfa2f275b:59dcbc57-c7a6-49c2-a2d4-4f51d477c2e2:607473a7-1f3c-4879-8251-48a1-471141d7:41027896:lwb9e161a03522939a84e7dc6fb8d72b",
      "id" : 383659141,
      "key" : "webOnboardingAddTodo",
      "revision" : 2,
      "type" : "setting",
      "value" : "true"
    },
    {
      "created_by_request_id" : "498d3ffc44ddfa2f275b:59dcbc57-c7a6-49c2-a2d4-4f51d477c2e2:607473a7-1f3c-4879-8251-48a1-471141d7:41027896:lwe4552f72e1b750241ac9cdcaba9584",
      "id" : 383659126,
      "key" : "background",
      "revision" : 5,
      "type" : "setting",
      "value" : "wlbackground03"
    },
    {
      "created_by_request_id" : "498d3ffc44ddfa2f275b:59dcbc57-c7a6-49c2-a2d4-4f51d477c2e2:607473a7-1f3c-4879-8251-48a1-471141d7:41027896:lw4e70462b95cbe9b570e1853095b400",
      "id" : 383659085,
      "key" : "webShortcutGotoInbox",
      "revision" : 1,
      "type" : "setting",
      "value" : "CTRL + I"
    }
  ],
  "subtask_positions" : [
    {
      "id" : 5032175359,
      "revision" : 0,
      "task_id" : 5032175359,
      "type" : "subtask_position",
      "values" : [

      ]
    },
    {
      "id" : 5030461917,
      "revision" : 0,
      "task_id" : 5030461917,
      "type" : "subtask_position",
      "values" : [

      ]
    },
    {
      "id" : 3917606699,
      "revision" : 0,
      "task_id" : 3917606699,
      "type" : "subtask_position",
      "values" : [

      ]
    },
    {
      "id" : 3962626059,
      "revision" : 1,
      "task_id" : 3962626059,
      "type" : "subtask_position",
      "values" : [
        1601417771
      ]
    },
    {
      "id" : 3858184298,
      "revision" : 5,
      "task_id" : 3858184298,
      "type" : "subtask_position",
      "values" : [
        1574846783,
        1574846801,
        1597990953
      ]
    },
    {
      "id" : 5032102009,
      "revision" : 1,
      "task_id" : 5032102009,
      "type" : "subtask_position",
      "values" : [
        1733216656
      ]
    },
    {
      "id" : 3917606953,
      "revision" : 0,
      "task_id" : 3917606953,
      "type" : "subtask_position",
      "values" : [

      ]
    },
    {
      "id" : 5030462416,
      "revision" : 3,
      "task_id" : 5030462416,
      "type" : "subtask_position",
      "values" : [
        1733054746,
        1733054763
      ]
    },
    {
      "id" : 5112132519,
      "revision" : 0,
      "task_id" : 5112132519,
      "type" : "subtask_position",
      "values" : [

      ]
    },
    {
      "id" : 4985969936,
      "revision" : 3,
      "task_id" : 4985969936,
      "type" : "subtask_position",
      "values" : [
        1733214060,
        1733214104
      ]
    }
  ],
  "subtasks" : [
    {
      "completed" : true,
      "created_at" : "2018-07-09T21:09:14.059Z",
      "created_by_id" : 41027896,
      "created_by_request_id" : "subtask:498d3ffc44ddfa2f275b:820a1dfa-a6b8-46b9-8be4-df31d3430874:f58889b4-a738-4a25-828f-ddc8-c6ac91d1:41027896:lw822b0b897e20fac58c63c2f3f73b62",
      "id" : 1597990953,
      "revision" : 2,
      "task_id" : 3858184298,
      "title" : "Subtask3",
      "type" : "subtask"
    },
    {
      "completed" : false,
      "created_at" : "2018-07-18T12:42:54.370Z",
      "created_by_id" : 41027896,
      "created_by_request_id" : "subtask:498d3ffc44ddfa2f275b:820a1dfa-a6b8-46b9-8be4-df31d3430874:f036df09-bf45-4752-8f92-a072-5b09be7f:41027896:lw59359d037de884b40cefd9625a3172",
      "id" : 1601417771,
      "revision" : 1,
      "task_id" : 3962626059,
      "title" : "SubtaskA",
      "type" : "subtask"
    },
    {
      "completed" : false,
      "created_at" : "2018-05-19T07:48:46.592Z",
      "created_by_id" : 41027896,
      "created_by_request_id" : "subtask:498d3ffc44ddfa2f275b:af05db92-e99a-47c0-bb9b-7ba89a0f12f3:133a8dca-3019-4f11-bb5e-ea2e-0bbda505:41027896:lwdbb63be81665b1e83b0a033585f621",
      "id" : 1574846783,
      "revision" : 3,
      "task_id" : 3858184298,
      "title" : "Subtask1",
      "type" : "subtask"
    },
    {
      "completed" : false,
      "created_at" : "2019-05-18T10:52:03.377Z",
      "created_by_id" : 41027896,
      "created_by_request_id" : "subtask:498d3ffc44ddfa2f275b:176a2be5-47ff-44fc-957f-7cc224c2848e:29ba82c2-ca83-467b-861c-ca9c-0d8a0136:41027896:lw1264271e8fa34f38e362fdb3f261e9",
      "id" : 1733054746,
      "revision" : 1,
      "task_id" : 5030462416,
      "title" : "Subtask 1",
      "type" : "subtask"
    },
    {
      "completed" : false,
      "created_at" : "2019-05-18T10:52:07.030Z",
      "created_by_id" : 41027896,
      "created_by_request_id" : "subtask:498d3ffc44ddfa2f275b:176a2be5-47ff-44fc-957f-7cc224c2848e:29ba82c2-ca83-467b-861c-ca9c-0d8a0136:41027896:lwed8b06472dba183d905e34b5e25e9a",
      "id" : 1733054763,
      "revision" : 1,
      "task_id" : 5030462416,
      "title" : "Subtask 2",
      "type" : "subtask"
    },
    {
      "completed" : true,
      "created_at" : "2019-05-18T22:04:00.407Z",
      "created_by_id" : 41027896,
      "created_by_request_id" : "subtask:498d3ffc44ddfa2f275b:176a2be5-47ff-44fc-957f-7cc224c2848e:02c015fa-1e2d-40f0-9e17-59f2-09be8855:41027896:lw689134cca7848e0e158cb437c3a277",
      "id" : 1733214104,
      "revision" : 2,
      "task_id" : 4985969936,
      "title" : "Ended subtask",
      "type" : "subtask"
    },
    {
      "completed" : false,
      "created_at" : "2019-06-13T09:58:48.472Z",
      "created_by_id" : 41027896,
      "created_by_request_id" : "subtask:3662fd0097daf4f3bc3d:3bd34e2e-7a39-5939-a429-5070d27920cd:e4844207-05f5-470e-b6ad-ee8fe476e582:41027896:380e1703-6434-4baf-96c1-7bccbc10d944",
      "id" : 1744214637,
      "revision" : 1,
      "task_id" : 5112132519,
      "title" : "Create test subtask",
      "type" : "subtask"
    },
    {
      "completed" : false,
      "created_at" : "2019-05-18T22:20:33.306Z",
      "created_by_id" : 41027896,
      "created_by_request_id" : "subtask:498d3ffc44ddfa2f275b:176a2be5-47ff-44fc-957f-7cc224c2848e:02c015fa-1e2d-40f0-9e17-59f2-09be8855:41027896:lw38702f8a025c188aa51d2cd4692e4a",
      "id" : 1733216656,
      "revision" : 1,
      "task_id" : 5032102009,
      "title" : "Subtask list 3",
      "type" : "subtask"
    },
    {
      "completed" : false,
      "created_at" : "2019-05-18T22:03:48.315Z",
      "created_by_id" : 41027896,
      "created_by_request_id" : "subtask:498d3ffc44ddfa2f275b:176a2be5-47ff-44fc-957f-7cc224c2848e:02c015fa-1e2d-40f0-9e17-59f2-09be8855:41027896:lwa3a368a90bfacc325c541881eeccf3",
      "id" : 1733214060,
      "revision" : 1,
      "task_id" : 4985969936,
      "title" : "Subtask",
      "type" : "subtask"
    },
    {
      "completed" : false,
      "created_at" : "2018-05-19T07:48:52.434Z",
      "created_by_id" : 41027896,
      "created_by_request_id" : "subtask:498d3ffc44ddfa2f275b:af05db92-e99a-47c0-bb9b-7ba89a0f12f3:133a8dca-3019-4f11-bb5e-ea2e-0bbda505:41027896:lw5adb579aa9f7bb7257473a873af38e",
      "id" : 1574846801,
      "revision" : 3,
      "task_id" : 3858184298,
      "title" : "Subtask2",
      "type" : "subtask"
    }
  ],
  "task_comment_states" : [
    {
      "id" : 160572666,
      "last_read_id" : 102589733,
      "revision" : 12,
      "task_id" : 3917606699,
      "type" : "task_comments_state",
      "unread_count" : 0
    },
    {
      "id" : 163360650,
      "last_read_id" : 103888118,
      "revision" : 2,
      "task_id" : 3962626059,
      "type" : "task_comments_state",
      "unread_count" : 0
    },
    {
      "id" : 226344133,
      "revision" : 1,
      "task_id" : 5112132519,
      "type" : "task_comments_state",
      "unread_count" : 0
    },
    {
      "id" : 222563940,
      "last_read_id" : 131845909,
      "revision" : 2,
      "task_id" : 3858184298,
      "type" : "task_comments_state",
      "unread_count" : 0
    }
  ],
  "task_comments" : [
    {
      "author" : {
        "avatar" : "https:\/\/a.wunderlist.com\/api\/v1\/avatar?user_id=41027896",
        "id" : 41027896,
        "name" : "Test User"
      },
      "created_at" : "2018-07-14T11:16:41.000Z",
      "created_by_request_id" : "498d3ffc44ddfa2f275b:820a1dfa-a6b8-46b9-8be4-df31d3430874:f58889b4-a738-4a25-828f-ddc8-c6ac91d1:41027896:lw10520aaec9c390f0d1b3506f377c2c",
      "id" : 102551797,
      "local_created_at" : "2018-07-14T11:16:40.816Z",
      "revision" : 1,
      "task_id" : 3917606699,
      "text" : "Общий комментарий",
      "type" : "task_comment"
    },
    {
      "author" : {
        "avatar" : "https:\/\/a.wunderlist.com\/api\/v1\/avatar?user_id=41027896",
        "id" : 41027896,
        "name" : "Test User"
      },
      "created_at" : "2018-07-14T11:47:27.000Z",
      "created_by_request_id" : "498d3ffc44ddfa2f275b:820a1dfa-a6b8-46b9-8be4-df31d3430874:f036df09-bf45-4752-8f92-a072-5b09be7f:41027896:lwb2d8c05b6cb1cdeee22e62ba5c80d4",
      "id" : 102552982,
      "local_created_at" : "2018-07-14T11:47:26.551Z",
      "revision" : 1,
      "task_id" : 3917606699,
      "text" : "Комментарий 2",
      "type" : "task_comment"
    },
    {
      "author" : {
        "avatar" : "https:\/\/a.wunderlist.com\/api\/v1\/avatar?user_id=41027896",
        "id" : 41027896,
        "name" : "Test User"
      },
      "created_at" : "2019-05-24T07:47:25.000Z",
      "created_by_request_id" : "498d3ffc44ddfa2f275b:176a2be5-47ff-44fc-957f-7cc224c2848e:02c015fa-1e2d-40f0-9e17-59f2-09be8855:41027896:lwd619a0e72c3c5cbc6e4b3f09a39f85",
      "id" : 131845909,
      "local_created_at" : "2019-05-24T07:47:23.798Z",
      "revision" : 1,
      "task_id" : 3858184298,
      "text" : "Comment",
      "type" : "task_comment"
    },
    {
      "author" : {
        "avatar" : "https:\/\/a.wunderlist.com\/api\/v1\/avatar?user_id=84504316",
        "id" : 84504316,
        "name" : "Test user B"
      },
      "created_at" : "2018-07-15T16:26:54.000Z",
      "created_by_request_id" : "498d3ffc44ddfa2f275b:af05db92-e99a-47c0-bb9b-7ba89a0f12f3:6424960d-d8f9-4bb6-a16f-fe76-c3d27ac3:84504316:lweb800e389fec94df5f468bf8603fd0",
      "id" : 102589733,
      "local_created_at" : "2018-07-15T16:26:53.723Z",
      "revision" : 1,
      "task_id" : 3917606699,
      "text" : "Сторонний комментарий",
      "type" : "task_comment"
    },
    {
      "author" : {
        "avatar" : "https:\/\/a.wunderlist.com\/api\/v1\/avatar?user_id=41027896",
        "id" : 41027896,
        "name" : "Test User"
      },
      "created_at" : "2018-07-29T20:41:27.000Z",
      "id" : 103888118,
      "local_created_at" : "2018-07-29T20:41:26.682Z",
      "revision" : 1,
      "task_id" : 3962626059,
      "text" : "Comment",
      "type" : "task_comment"
    },
    {
      "author" : {
        "avatar" : "https:\/\/a.wunderlist.com\/api\/v1\/avatar?user_id=41027896",
        "id" : 41027896,
        "name" : "Test User"
      },
      "created_at" : "2018-07-14T11:17:18.000Z",
      "created_by_request_id" : "498d3ffc44ddfa2f275b:820a1dfa-a6b8-46b9-8be4-df31d3430874:f58889b4-a738-4a25-828f-ddc8-c6ac91d1:41027896:lw0129c81010cabb64864f65b3a41851",
      "id" : 102551822,
      "local_created_at" : "2018-07-14T11:17:17.433Z",
      "revision" : 1,
      "task_id" : 3917606699,
      "text" : "Общий комментарий 1",
      "type" : "task_comment"
    },
    {
      "author" : {
        "avatar" : "https:\/\/a.wunderlist.com\/api\/v1\/avatar?user_id=41027896",
        "id" : 41027896,
        "name" : "Test User"
      },
      "created_at" : "2019-06-13T09:58:54.000Z",
      "created_by_request_id" : "3662fd0097daf4f3bc3d:3bd34e2e-7a39-5939-a429-5070d27920cd:e4844207-05f5-470e-b6ad-ee8fe476e582:41027896:1d442427-0dbd-4c5f-b1ef-59f60a50c23d",
      "id" : 133520806,
      "local_created_at" : "2019-06-13T09:58:53.712Z",
      "revision" : 1,
      "task_id" : 5112132519,
      "text" : "Create test comment",
      "type" : "task_comment"
    }
  ],
  "task_positions" : [
    {
      "id" : 394163197,
      "list_id" : 394163197,
      "revision" : 1,
      "type" : "task_position",
      "values" : [
        5030462416
      ]
    },
    {
      "id" : 396563172,
      "list_id" : 396563172,
      "revision" : 1,
      "type" : "task_position",
      "values" : [
        5112132519
      ]
    },
    {
      "id" : 286646344,
      "list_id" : 286646344,
      "revision" : 30,
      "type" : "task_position",
      "values" : [
        4984659214,
        3962626059,
        3858184298
      ]
    },
    {
      "id" : 394163194,
      "list_id" : 394163194,
      "revision" : 1,
      "type" : "task_position",
      "values" : [
        5030461917
      ]
    },
    {
      "id" : 353279260,
      "list_id" : 353279260,
      "revision" : 4,
      "type" : "task_position",
      "values" : [
        3917606699,
        3917606953
      ]
    },
    {
      "id" : 394200629,
      "list_id" : 394200629,
      "revision" : 7,
      "type" : "task_position",
      "values" : [
        5032102009,
        5032175359
      ]
    }
  ],
  "tasks" : [
    {
      "completed" : true,
      "completed_at" : "2019-05-18T10:50:05.259Z",
      "completed_by_id" : 41027896,
      "created_at" : "2019-05-04T10:09:11.879Z",
      "created_by_id" : 41027896,
      "created_by_request_id" : "3662fd0097daf4f3bc3d:d6940189-9ecc-41ff-2222-877bdc8a0692:7f515120-50ed-49d8-a0de-1111-2cc4a826:41027896:tw29756c93de417cae8d5b2b51b883cf",
      "id" : 4985969936,
      "list_id" : 286646344,
      "revision" : 9,
      "starred" : false,
      "title" : "Ended task",
      "type" : "task"
    },
    {
      "assignee_id" : 41027896,
      "completed" : false,
      "created_at" : "2018-06-07T16:26:42.179Z",
      "created_by_id" : 84504316,
      "created_by_request_id" : "498d3ffc44ddfa2f275b:af05db92-e99a-47c0-bb9b-7ba89a0f12f3:9c142af4-98b1-41d2-b469-2d7b-043dc8f3:84504316:lw3d2f9abfa7c2059bfaf635030a1c67",
      "id" : 3917606699,
      "list_id" : 353279260,
      "revision" : 21,
      "starred" : false,
      "title" : "Test task shared 1",
      "type" : "task"
    },
    {
      "completed" : false,
      "created_at" : "2018-06-22T15:10:03.690Z",
      "created_by_id" : 41027896,
      "created_by_request_id" : "498d3ffc44ddfa2f275b:820a1dfa-a6b8-46b9-8be4-df31d3430874:8620c4ef-24f1-4d82-bfcc-ef4c-d394235e:41027896:lw8a6a6d2aca98068d7992a171bceb15",
      "id" : 3962626059,
      "list_id" : 286646344,
      "revision" : 6,
      "starred" : false,
      "title" : "Test task inbox A",
      "type" : "task"
    },
    {
      "completed" : false,
      "created_at" : "2019-05-18T22:17:59.290Z",
      "created_by_id" : 41027896,
      "created_by_request_id" : "498d3ffc44ddfa2f275b:176a2be5-47ff-44fc-957f-7cc224c2848e:02c015fa-1e2d-40f0-9e17-59f2-09be8855:41027896:lw9222cf1dd90dd50eaeb0a67449feaf",
      "id" : 5032102009,
      "list_id" : 394200629,
      "revision" : 6,
      "starred" : false,
      "title" : "Task 1 list 3",
      "type" : "task"
    },
    {
      "completed" : false,
      "created_at" : "2019-05-18T10:50:53.772Z",
      "created_by_id" : 41027896,
      "created_by_request_id" : "498d3ffc44ddfa2f275b:176a2be5-47ff-44fc-957f-7cc224c2848e:29ba82c2-ca83-467b-861c-ca9c-0d8a0136:41027896:lw3fa4d4cf41a6e655091956e03ae616",
      "id" : 5030461917,
      "list_id" : 394163194,
      "revision" : 2,
      "starred" : true,
      "title" : "Task 1  list 1",
      "type" : "task"
    },
    {
      "completed" : false,
      "created_at" : "2018-06-07T16:26:47.928Z",
      "created_by_id" : 84504316,
      "created_by_request_id" : "498d3ffc44ddfa2f275b:af05db92-e99a-47c0-bb9b-7ba89a0f12f3:9c142af4-98b1-41d2-b469-2d7b-043dc8f3:84504316:lw911f094e50dabe722f1bab5ae4e962",
      "id" : 3917606953,
      "list_id" : 353279260,
      "revision" : 1,
      "starred" : false,
      "title" : "Test task shared 2",
      "type" : "task"
    },
    {
      "completed" : false,
      "created_at" : "2019-06-13T09:58:43.147Z",
      "created_by_id" : 41027896,
      "created_by_request_id" : "3662fd0097daf4f3bc3d:3bd34e2e-7a39-5939-a429-5070d27920cd:e4844207-05f5-470e-b6ad-ee8fe476e582:41027896:51901f58-04ab-48c6-8e59-c3eb4cc41cc1",
      "id" : 5112132519,
      "list_id" : 396563172,
      "revision" : 5,
      "starred" : false,
      "title" : "Test create task modified",
      "type" : "task"
    },
    {
      "completed" : false,
      "created_at" : "2019-05-18T10:51:05.367Z",
      "created_by_id" : 41027896,
      "created_by_request_id" : "498d3ffc44ddfa2f275b:176a2be5-47ff-44fc-957f-7cc224c2848e:29ba82c2-ca83-467b-861c-ca9c-0d8a0136:41027896:lwa9c61dd9f7ed0c111d97132875c595",
      "id" : 5030462416,
      "list_id" : 394163197,
      "revision" : 7,
      "starred" : false,
      "title" : "Task 1 list 2",
      "type" : "task"
    },
    {
      "completed" : false,
      "created_at" : "2018-05-19T07:48:33.077Z",
      "created_by_id" : 41027896,
      "created_by_request_id" : "498d3ffc44ddfa2f275b:af05db92-e99a-47c0-bb9b-7ba89a0f12f3:133a8dca-3019-4f11-bb5e-ea2e-0bbda505:41027896:lw1235963eded3bd29c69fe58e35ef29",
      "due_date" : "2018-05-20",
      "id" : 3858184298,
      "list_id" : 286646344,
      "revision" : 38,
      "starred" : false,
      "title" : "Test task inbox",
      "type" : "task"
    },
    {
      "completed" : true,
      "completed_at" : "2019-06-12T14:14:36.030Z",
      "completed_by_id" : 41027896,
      "created_at" : "2019-05-18T23:12:26.356Z",
      "created_by_id" : 41027896,
      "created_by_request_id" : "498d3ffc44ddfa2f275b:176a2be5-47ff-44fc-957f-7cc224c2848e:02c015fa-1e2d-40f0-9e17-59f2-09be8855:41027896:lwd8014e5c720e7e0ad3d5b5cb81ab4a",
      "id" : 5032175359,
      "list_id" : 394200629,
      "revision" : 4,
      "starred" : false,
      "title" : "Task 2 list 3",
      "type" : "task"
    }
  ],
  "users" : [
    {
      "created_at" : "2017-01-17T17:08:17.000Z",
      "email" : "wunderlist@looksnvisions.com",
      "id" : 41027896,
      "name" : "Test User",
      "revision" : 1376,
      "type" : "user",
      "updated_at" : "2019-06-13T09:58:58.000Z"
    },
    {
      "created_at" : "2018-06-07T16:24:17.000Z",
      "email" : "plemu2005@gmail.com",
      "id" : 84504316,
      "name" : "Test user B",
      "revision" : 227,
      "type" : "user",
      "updated_at" : "2019-06-13T07:32:56.000Z"
    }
  ]
}