{
  "author" : {
    "avatar" : "https:\/\/a.wunderlist.com\/api\/v1\/avatar?user_id=41027896",
    "id" : 41027896,
    "name" : "Test User"
  },
  "created_at" : "2019-06-13T09:58:54.000Z",
  "created_by_request_id" : "3662fd0097daf4f3bc3d:3bd34e2e-7a39-5939-a429-5070d27920cd:e4844207-05f5-470e-b6ad-ee8fe476e582:41027896:1d442427-0dbd-4c5f-b1ef-59f60a50c23d",
  "id" : 133520806,
  "local_created_at" : "2019-06-13T09:58:53.712Z",
  "revision" : 1,
  "task_id" : 5112132519,
  "text" : "Create test comment",
  "type" : "task_comment"
}
